(kicad_symbol_lib (version 20211014) (generator kicad_symbol_editor)
  (symbol "TL072CP" (pin_names (offset 0.254)) (in_bom yes) (on_board yes)
    (property "Reference" "U" (id 0) (at 20.32 12.7 0)
      (effects (font (size 1.524 1.524)))
    )
    (property "Value" "TL072CP" (id 1) (at 20.32 10.16 0)
      (effects (font (size 1.524 1.524)))
    )
    (property "Footprint" "P8" (id 2) (at 0 0 0)
      (effects (font (size 1.27 1.27) italic) hide)
    )
    (property "Datasheet" "TL072CP" (id 3) (at 0 0 0)
      (effects (font (size 1.27 1.27) italic) hide)
    )
    (property "ki_keywords" "TL072CP" (id 4) (at 0 0 0)
      (effects (font (size 1.27 1.27)) hide)
    )
    (property "ki_locked" "" (id 5) (at 0 0 0)
      (effects (font (size 1.27 1.27)) hide)
    )
    (property "ki_fp_filters" "P8" (id 6) (at 0 0 0)
      (effects (font (size 1.27 1.27)) hide)
    )
    (symbol "TL072CP_0_1"
      (polyline
        (pts
          (xy 7.62 7.62)
          (xy 7.62 -30.48)
        )
        (stroke (width 0.127) (type default) (color 0 0 0 0))
        (fill (type none))
      )
      (polyline
        (pts
          (xy 7.62 -30.48)
          (xy 33.02 -30.48)
        )
        (stroke (width 0.127) (type default) (color 0 0 0 0))
        (fill (type none))
      )
      (polyline
        (pts
          (xy 33.02 -30.48)
          (xy 33.02 7.62)
        )
        (stroke (width 0.127) (type default) (color 0 0 0 0))
        (fill (type none))
      )
      (polyline
        (pts
          (xy 33.02 7.62)
          (xy 7.62 7.62)
        )
        (stroke (width 0.127) (type default) (color 0 0 0 0))
        (fill (type none))
      )
      (pin output line (at 40.64 2.54 180) (length 7.62)
        (name "1OUT" (effects (font (size 1.27 1.27))))
        (number "1" (effects (font (size 1.27 1.27))))
      )
      (pin input line (at 0 0 0) (length 7.62)
        (name "1IN-" (effects (font (size 1.27 1.27))))
        (number "2" (effects (font (size 1.27 1.27))))
      )
      (pin input line (at 0 -2.54 0) (length 7.62)
        (name "1IN+" (effects (font (size 1.27 1.27))))
        (number "3" (effects (font (size 1.27 1.27))))
      )
      (pin power_in line (at 0 -22.86 0) (length 7.62)
        (name "VCC-" (effects (font (size 1.27 1.27))))
        (number "4" (effects (font (size 1.27 1.27))))
      )
      (pin input line (at 0 -10.16 0) (length 7.62)
        (name "2IN+" (effects (font (size 1.27 1.27))))
        (number "5" (effects (font (size 1.27 1.27))))
      )
      (pin input line (at 0 -7.62 0) (length 7.62)
        (name "2IN-" (effects (font (size 1.27 1.27))))
        (number "6" (effects (font (size 1.27 1.27))))
      )
      (pin output line (at 40.64 0 180) (length 7.62)
        (name "2OUT" (effects (font (size 1.27 1.27))))
        (number "7" (effects (font (size 1.27 1.27))))
      )
      (pin power_in line (at 0 -25.4 0) (length 7.62)
        (name "VCC+" (effects (font (size 1.27 1.27))))
        (number "8" (effects (font (size 1.27 1.27))))
      )
    )
  )
)

