(kicad_symbol_lib (version 20220914) (generator kicad_symbol_editor)
  (symbol "TL072CP" (pin_names (offset 0.254)) (in_bom yes) (on_board yes)
    (property "Reference" "U4" (at 31.75 -5.08 0)
      (effects (font (size 1.524 1.524)))
    )
    (property "Value" "TL072CP" (at 31.75 -7.62 0)
      (effects (font (size 1.524 1.524)))
    )
    (property "Footprint" "P8" (at 31.75 2.54 0)
      (effects (font (size 1.27 1.27) italic) hide)
    )
    (property "Datasheet" "TL072CP" (at 31.75 -2.54 0)
      (effects (font (size 1.27 1.27) italic) hide)
    )
    (property "ki_locked" "" (at 0 0 0)
      (effects (font (size 1.27 1.27)))
    )
    (property "ki_keywords" "TL072CP" (at 0 0 0)
      (effects (font (size 1.27 1.27)) hide)
    )
    (property "ki_fp_filters" "P8" (at 0 0 0)
      (effects (font (size 1.27 1.27)) hide)
    )
    (symbol "TL072CP_0_1"
      (polyline
        (pts
          (xy 19.05 -15.24)
          (xy 44.45 -15.24)
        )
        (stroke (width 0.127) (type default))
        (fill (type none))
      )
      (polyline
        (pts
          (xy 19.05 5.08)
          (xy 19.05 -15.24)
        )
        (stroke (width 0.127) (type default))
        (fill (type none))
      )
      (polyline
        (pts
          (xy 44.45 -15.24)
          (xy 44.45 5.08)
        )
        (stroke (width 0.127) (type default))
        (fill (type none))
      )
      (polyline
        (pts
          (xy 44.45 5.08)
          (xy 19.05 5.08)
        )
        (stroke (width 0.127) (type default))
        (fill (type none))
      )
      (pin output line (at 11.43 2.54 0) (length 7.62)
        (name "1OUT" (effects (font (size 1.27 1.27))))
        (number "1" (effects (font (size 1.27 1.27))))
      )
      (pin input line (at 11.43 -2.54 0) (length 7.62)
        (name "1IN-" (effects (font (size 1.27 1.27))))
        (number "2" (effects (font (size 1.27 1.27))))
      )
      (pin input line (at 11.43 -7.62 0) (length 7.62)
        (name "1IN+" (effects (font (size 1.27 1.27))))
        (number "3" (effects (font (size 1.27 1.27))))
      )
      (pin power_in line (at 11.43 -12.7 0) (length 7.62)
        (name "VCC-" (effects (font (size 1.27 1.27))))
        (number "4" (effects (font (size 1.27 1.27))))
      )
      (pin input line (at 52.07 -12.7 180) (length 7.62)
        (name "2IN+" (effects (font (size 1.27 1.27))))
        (number "5" (effects (font (size 1.27 1.27))))
      )
      (pin input line (at 52.07 -7.62 180) (length 7.62)
        (name "2IN-" (effects (font (size 1.27 1.27))))
        (number "6" (effects (font (size 1.27 1.27))))
      )
      (pin output line (at 52.07 -2.54 180) (length 7.62)
        (name "2OUT" (effects (font (size 1.27 1.27))))
        (number "7" (effects (font (size 1.27 1.27))))
      )
      (pin power_in line (at 52.07 2.54 180) (length 7.62)
        (name "VCC+" (effects (font (size 1.27 1.27))))
        (number "8" (effects (font (size 1.27 1.27))))
      )
    )
  )
)
