(footprint "alps_slide_RS60112" (version 20221018) (generator pcbnew)
  (layer "F.Cu")
  (attr through_hole)
  (fp_text reference "REF**" (at 0 -2.5 unlocked) (layer "F.SilkS")
      (effects (font (size 1 1) (thickness 0.15)))
    (tstamp 9038afda-a5d7-4633-98a1-74e8e10e42ed)
  )
  (fp_text value "alps_slide_RS60112" (at 0 2.5 unlocked) (layer "F.Fab")
      (effects (font (size 1 1) (thickness 0.15)))
    (tstamp ab95fd35-3ad3-47b1-82ba-8106bc3607e2)
  )
  (fp_text user "${REFERENCE}" (at 0 0 unlocked) (layer "F.Fab")
      (effects (font (size 1 1) (thickness 0.15)))
    (tstamp 4c6b4612-5db6-4e39-af56-e69c9afb8d35)
  )
  (fp_rect (start -37.75 -4.75) (end 37.75 4.75)
    (stroke (width 0.12) (type default)) (fill none) (layer "F.SilkS") (tstamp 8371a070-af0c-4755-a59d-fb14ed6cae6a))
  (fp_rect (start -38 -5) (end 38 5)
    (stroke (width 0.05) (type default)) (fill none) (layer "F.CrtYd") (tstamp cd0da231-187f-4afb-91d4-84c783807a73))
  (fp_rect (start -37.5 -4.5) (end 37.5 4.5)
    (stroke (width 0.1) (type default)) (fill none) (layer "F.Fab") (tstamp 07d05320-92c1-4110-8df4-55dfb9ea068f))
  (pad "" np_thru_hole circle (at -25.25 0) (size 2.5 2.5) (drill 2.5) (layers "F&B.Cu" "*.Mask") (tstamp 93db2610-f2b5-4174-93cd-5ade556d7f61))
  (pad "" np_thru_hole circle (at 22.25 0) (size 2.5 2.5) (drill 2.5) (layers "F&B.Cu" "*.Mask") (tstamp 03a84d74-38c1-451a-b4a0-2cea8cf333bb))
  (pad "1" thru_hole circle (at -35 3.75) (size 1.524 1.524) (drill 0.762) (layers "*.Cu" "*.Mask") (tstamp f46b5601-bb18-4931-b06f-9035bb67d54a))
  (pad "2" thru_hole circle (at -35 1.25) (size 1.524 1.524) (drill 0.762) (layers "*.Cu" "*.Mask") (tstamp 63f289e5-8cdf-4193-9429-87bc83a9401c))
  (pad "3" thru_hole circle (at 35 3.75) (size 1.524 1.524) (drill 0.762) (layers "*.Cu" "*.Mask") (tstamp 3c3c657f-f225-4b55-89b7-a07c79f18ebf))
  (pad "4" thru_hole circle (at -35 -1.25) (size 1.524 1.524) (drill 0.762) (layers "*.Cu" "*.Mask") (tstamp 18a6d8f6-bd6e-45b2-be40-92eaf1c6a0b9))
  (pad "5" thru_hole circle (at -35 -3.75) (size 1.524 1.524) (drill 0.762) (layers "*.Cu" "*.Mask") (tstamp f7f263ea-6cbf-4c2d-94c7-704f4eaaa964))
  (pad "6" thru_hole circle (at 35 -1.25) (size 1.524 1.524) (drill 0.762) (layers "*.Cu" "*.Mask") (tstamp a31833aa-b05c-473e-8ac8-a2b3858a4178))
  (model "./3d_data/RS6011_P.STEP"
    (offset (xyz 0.15 0 0))
    (scale (xyz 1 1 1))
    (rotate (xyz 0 0 0))
  )
)
