(footprint "RCA_RCJ-2134" (version 20221018) (generator pcbnew)
  (layer "F.Cu")
  (property "Sheetfile" "RcaToXlr.kicad_sch")
  (property "Sheetname" "")
  (property "ki_description" "coaxial connector (BNC, SMA, SMB, SMC, Cinch/RCA, LEMO, ...)")
  (property "ki_keywords" "BNC SMA SMB SMC LEMO coaxial connector CINCH RCA")
  (attr through_hole)
  (fp_text reference "J5" (at 0 -0.5 unlocked) (layer "F.SilkS")
      (effects (font (size 1 1) (thickness 0.1)))
    (tstamp 81a042ec-a83d-499a-bcd5-736bb2dd93a0)
  )
  (fp_text value "Conn_Coaxial_x2_Isolated" (at 0 1 unlocked) (layer "F.Fab")
      (effects (font (size 1 1) (thickness 0.15)))
    (tstamp fd6f6af1-e23d-4a5e-812b-7b53b8ba0abd)
  )
  (fp_text user "${REFERENCE}" (at 0 2.5 unlocked) (layer "F.Fab")
      (effects (font (size 1 1) (thickness 0.15)))
    (tstamp caa33702-b50b-46e2-8071-27027efffdf2)
  )
  (fp_line (start -14 -5.35) (end 13.85 -5.3)
    (stroke (width 0.1) (type default)) (layer "F.SilkS") (tstamp 11bf47a8-2b52-4747-ae62-c5175e67de60))
  (fp_line (start -14 6.45) (end -14 -5.35)
    (stroke (width 0.1) (type default)) (layer "F.SilkS") (tstamp 8adcbc7e-61b0-4cec-814a-3f6a60acf328))
  (fp_line (start -14 6.45) (end 13.85 6.4)
    (stroke (width 0.1) (type default)) (layer "F.SilkS") (tstamp 03e0dedb-6f87-4a3a-bb18-543b0b1488a5))
  (fp_line (start 13.85 6.4) (end 13.85 -5.3)
    (stroke (width 0.1) (type default)) (layer "F.SilkS") (tstamp 1c7bb7d6-f892-4f13-9006-130e7b420415))
  (fp_rect (start -14.15 -5.5) (end 14.05 6.6)
    (stroke (width 0.1) (type default)) (fill none) (layer "F.CrtYd") (tstamp ea8a81ff-bf6f-4221-ae99-11088dfb2ecc))
  (pad "" np_thru_hole oval (at -12.15 0) (size 2.5 4.2) (drill 0.762) (layers "F&B.Cu" "*.Mask") (tstamp 08d1ecf9-a443-469c-95f8-6327184b8621))
  (pad "" np_thru_hole oval (at 12.15 0) (size 2.5 4.2) (drill 0.762) (layers "F&B.Cu" "*.Mask") (tstamp 447672fa-9dd6-44ad-8069-15874532fe9d))
  (pad "1" thru_hole circle (at 3 4.75) (size 2.5 2.5) (drill 1.2) (layers "*.Cu" "*.Mask") (tstamp 8ab99734-35d7-4e39-98f7-9611f168c09f))
  (pad "2" thru_hole circle (at 7 0) (size 3.5 3.5) (drill 2.5) (layers "*.Cu" "*.Mask") (tstamp 0dc19feb-b388-4f8c-b6cf-d429c823b620))
  (pad "3" thru_hole circle (at -11 4.75) (size 2.5 2.5) (drill 1.2) (layers "*.Cu" "*.Mask") (tstamp 651ebcda-16de-4dec-9c01-2b285022e627))
  (pad "4" thru_hole circle (at -7 0) (size 3.5 3.5) (drill 2.5) (layers "*.Cu" "*.Mask") (tstamp cf162e28-28f4-42b3-93fa-2b3929a6d7ac))
)
