(kicad_symbol_lib (version 20220914) (generator kicad_symbol_editor)
  (symbol "DRV134" (in_bom yes) (on_board yes)
    (property "Reference" "U" (at 0 0 0)
      (effects (font (size 1.27 1.27)))
    )
    (property "Value" "" (at -6.35 5.08 0)
      (effects (font (size 1.27 1.27)))
    )
    (property "Footprint" "" (at -6.35 5.08 0)
      (effects (font (size 1.27 1.27)) hide)
    )
    (property "Datasheet" "https://www.ti.com/lit/ds/symlink/drv134.pdf?ts=1691222252870&ref_url=https%253A%252F%252Fwww.ti.com%252Fproduct%252Fde-de%252FDRV134" (at 0 -15.24 0)
      (effects (font (size 1.27 1.27)) hide)
    )
    (property "ki_fp_filters" "DIP-8_W7.62mm SO-8_3.9x4.9mm_P1.27mm" (at 0 0 0)
      (effects (font (size 1.27 1.27)) hide)
    )
    (symbol "DRV134_0_1"
      (rectangle (start -10.16 10.16) (end 10.16 -10.16)
        (stroke (width 0) (type default))
        (fill (type none))
      )
    )
    (symbol "DRV134_1_1"
      (pin output line (at -12.7 7.62 0) (length 2.54)
        (name "-V_out" (effects (font (size 1.27 1.27))))
        (number "1" (effects (font (size 1.27 1.27))))
      )
      (pin input line (at -12.7 2.54 0) (length 2.54)
        (name "Sense_-" (effects (font (size 1.27 1.27))))
        (number "2" (effects (font (size 1.27 1.27))))
      )
      (pin power_in line (at -12.7 -2.54 0) (length 2.54)
        (name "GND" (effects (font (size 1.27 1.27))))
        (number "3" (effects (font (size 1.27 1.27))))
      )
      (pin input line (at -12.7 -7.62 0) (length 2.54)
        (name "V_in" (effects (font (size 1.27 1.27))))
        (number "4" (effects (font (size 1.27 1.27))))
      )
      (pin power_in line (at 12.7 -7.62 180) (length 2.54)
        (name "V-" (effects (font (size 1.27 1.27))))
        (number "5" (effects (font (size 1.27 1.27))))
      )
      (pin power_in line (at 12.7 -2.54 180) (length 2.54)
        (name "V+" (effects (font (size 1.27 1.27))))
        (number "6" (effects (font (size 1.27 1.27))))
      )
      (pin input line (at 12.7 2.54 180) (length 2.54)
        (name "Sense_+" (effects (font (size 1.27 1.27))))
        (number "7" (effects (font (size 1.27 1.27))))
      )
      (pin output line (at 12.7 7.62 180) (length 2.54)
        (name "+V_out" (effects (font (size 1.27 1.27))))
        (number "8" (effects (font (size 1.27 1.27))))
      )
    )
  )
  (symbol "INA134" (in_bom yes) (on_board yes)
    (property "Reference" "U" (at 0 0 0)
      (effects (font (size 1.27 1.27)))
    )
    (property "Value" "" (at 0 0 0)
      (effects (font (size 1.27 1.27)))
    )
    (property "Footprint" "" (at 0 0 0)
      (effects (font (size 1.27 1.27)) hide)
    )
    (property "Datasheet" "https://www.ti.com/lit/ds/symlink/ina134.pdf?ts=1691223942328&ref_url=https%253A%252F%252Fwww.ti.com%252Fproduct%252Fde-de%252FINA134" (at 0 -13.97 0)
      (effects (font (size 1.27 1.27)) hide)
    )
    (property "ki_fp_filters" "DIP-8_W7.62mm SO-8_3.9x4.9mm_P1.27mm" (at 0 0 0)
      (effects (font (size 1.27 1.27)) hide)
    )
    (symbol "INA134_0_1"
      (rectangle (start -10.16 10.16) (end 10.16 -10.16)
        (stroke (width 0) (type default))
        (fill (type none))
      )
    )
    (symbol "INA134_1_1"
      (pin input line (at -12.7 7.62 0) (length 2.54)
        (name "Ref." (effects (font (size 1.27 1.27))))
        (number "1" (effects (font (size 1.27 1.27))))
      )
      (pin input line (at -12.7 2.54 0) (length 2.54)
        (name "In_-" (effects (font (size 1.27 1.27))))
        (number "2" (effects (font (size 1.27 1.27))))
      )
      (pin input line (at -12.7 -2.54 0) (length 2.54)
        (name "In_+" (effects (font (size 1.27 1.27))))
        (number "3" (effects (font (size 1.27 1.27))))
      )
      (pin power_in line (at -12.7 -7.62 0) (length 2.54)
        (name "V-" (effects (font (size 1.27 1.27))))
        (number "4" (effects (font (size 1.27 1.27))))
      )
      (pin input line (at 12.7 -7.62 180) (length 2.54)
        (name "Sense" (effects (font (size 1.27 1.27))))
        (number "5" (effects (font (size 1.27 1.27))))
      )
      (pin output line (at 12.7 -2.54 180) (length 2.54)
        (name "Out" (effects (font (size 1.27 1.27))))
        (number "6" (effects (font (size 1.27 1.27))))
      )
      (pin power_in line (at 12.7 2.54 180) (length 2.54)
        (name "V+" (effects (font (size 1.27 1.27))))
        (number "7" (effects (font (size 1.27 1.27))))
      )
      (pin no_connect line (at 12.7 7.62 180) (length 2.54)
        (name "NC" (effects (font (size 1.27 1.27))))
        (number "8" (effects (font (size 1.27 1.27))))
      )
    )
  )
)
