(footprint "P8" (version 20211014) (generator pcbnew)
  (layer "F.Cu")
  (tags "DRV134PA ")
  (attr through_hole)
  (fp_text reference "REF**" (at 3.81 3.81 unlocked) (layer F.SilkS)
    (effects (font (size 1 1) (thickness 0.15)))
  )
  (fp_text value P8 (at 3.81 3.81 unlocked) (layer F.Fab)
    (effects (font (size 1 1) (thickness 0.15)))
  )
  (fp_text user "${REFERENCE}" (at 3.81 3.81 unlocked) (layer F.Fab)
    (effects (font (size 1 1) (thickness 0.15)))
  )
  (fp_text user "*" (at 0 -1.4478) (layer F.SilkS)
    (effects (font (size 1 1) (thickness 0.15)))
  )
  (fp_text user "*" (at 0.762 0) (layer F.Fab)
    (effects (font (size 1 1) (thickness 0.15)))
  )
  (fp_line (start -0.9398 8.636) (end -0.9398 -1.016) (layer "F.CrtYd") (width 0.1524))
  (fp_line (start -0.9398 -1.016) (end 0.254 -1.016) (layer "F.CrtYd") (width 0.1524))
  (fp_line (start 8.5598 -1.016) (end 7.366 -1.016) (layer "F.CrtYd") (width 0.1524))
  (fp_line (start 8.5598 -1.016) (end 8.5598 8.636) (layer "F.CrtYd") (width 0.1524))
  (fp_line (start 8.5598 8.636) (end 7.366 8.636) (layer "F.CrtYd") (width 0.1524))
  (fp_line (start 0.254 8.636) (end -0.9398 8.636) (layer "F.CrtYd") (width 0.1524))
  (fp_line (start 0.254 9.144) (end 0.254 8.636) (layer "F.CrtYd") (width 0.1524))
  (fp_line (start 0.254 -1.016) (end 0.254 -1.524) (layer "F.CrtYd") (width 0.1524))
  (fp_line (start 0.254 -1.524) (end 7.366 -1.524) (layer "F.CrtYd") (width 0.1524))
  (fp_line (start 7.366 -1.524) (end 7.366 -1.016) (layer "F.CrtYd") (width 0.1524))
  (fp_line (start 7.366 8.636) (end 7.366 9.144) (layer "F.CrtYd") (width 0.1524))
  (fp_line (start 7.366 9.144) (end 0.254 9.144) (layer "F.CrtYd") (width 0.1524))
  (fp_text user "*" (at 0.762 0 unlocked) (layer "F.Fab")
    (effects (font (size 1 1) (thickness 0.15)))
  )
  (fp_text user "*" (at 0 -1.4478 unlocked) (layer "F.SilkS")
    (effects (font (size 1 1) (thickness 0.15)))
  )
  (fp_line (start 0.508 0.4318) (end 0.508 -0.4318) (layer "F.Fab") (width 0.0254))
  (fp_line (start 0.508 -0.4318) (end -0.4318 -0.4318) (layer "F.Fab") (width 0.0254))
  (fp_line (start -0.4318 -0.4318) (end -0.4318 0.4318) (layer "F.Fab") (width 0.0254))
  (fp_line (start -0.4318 0.4318) (end 0.508 0.4318) (layer "F.Fab") (width 0.0254))
  (fp_line (start 0.508 2.9718) (end 0.508 2.1082) (layer "F.Fab") (width 0.0254))
  (fp_line (start 0.508 2.1082) (end -0.4318 2.1082) (layer "F.Fab") (width 0.0254))
  (fp_line (start -0.4318 2.1082) (end -0.4318 2.9718) (layer "F.Fab") (width 0.0254))
  (fp_line (start -0.4318 2.9718) (end 0.508 2.9718) (layer "F.Fab") (width 0.0254))
  (fp_line (start 0.508 5.5118) (end 0.508 4.6482) (layer "F.Fab") (width 0.0254))
  (fp_line (start 0.508 4.6482) (end -0.4318 4.6482) (layer "F.Fab") (width 0.0254))
  (fp_line (start -0.4318 4.6482) (end -0.4318 5.5118) (layer "F.Fab") (width 0.0254))
  (fp_line (start -0.4318 5.5118) (end 0.508 5.5118) (layer "F.Fab") (width 0.0254))
  (fp_line (start 0.508 8.0518) (end 0.508 7.1882) (layer "F.Fab") (width 0.0254))
  (fp_line (start 0.508 7.1882) (end -0.4318 7.1882) (layer "F.Fab") (width 0.0254))
  (fp_line (start -0.4318 7.1882) (end -0.4318 8.0518) (layer "F.Fab") (width 0.0254))
  (fp_line (start -0.4318 8.0518) (end 0.508 8.0518) (layer "F.Fab") (width 0.0254))
  (fp_line (start 7.112 7.1882) (end 7.112 8.0518) (layer "F.Fab") (width 0.0254))
  (fp_line (start 7.112 8.0518) (end 8.0518 8.0518) (layer "F.Fab") (width 0.0254))
  (fp_line (start 8.0518 8.0518) (end 8.0518 7.1882) (layer "F.Fab") (width 0.0254))
  (fp_line (start 8.0518 7.1882) (end 7.112 7.1882) (layer "F.Fab") (width 0.0254))
  (fp_line (start 7.112 4.6482) (end 7.112 5.5118) (layer "F.Fab") (width 0.0254))
  (fp_line (start 7.112 5.5118) (end 8.0518 5.5118) (layer "F.Fab") (width 0.0254))
  (fp_line (start 8.0518 5.5118) (end 8.0518 4.6482) (layer "F.Fab") (width 0.0254))
  (fp_line (start 8.0518 4.6482) (end 7.112 4.6482) (layer "F.Fab") (width 0.0254))
  (fp_line (start 7.112 2.1082) (end 7.112 2.9718) (layer "F.Fab") (width 0.0254))
  (fp_line (start 7.112 2.9718) (end 8.0518 2.9718) (layer "F.Fab") (width 0.0254))
  (fp_line (start 8.0518 2.9718) (end 8.0518 2.1082) (layer "F.Fab") (width 0.0254))
  (fp_line (start 8.0518 2.1082) (end 7.112 2.1082) (layer "F.Fab") (width 0.0254))
  (fp_line (start 7.112 -0.4318) (end 7.112 0.4318) (layer "F.Fab") (width 0.0254))
  (fp_line (start 7.112 0.4318) (end 8.0518 0.4318) (layer "F.Fab") (width 0.0254))
  (fp_line (start 8.0518 0.4318) (end 8.0518 -0.4318) (layer "F.Fab") (width 0.0254))
  (fp_line (start 8.0518 -0.4318) (end 7.112 -0.4318) (layer "F.Fab") (width 0.0254))
  (fp_line (start 0.381 9.017) (end 7.239 9.017) (layer "F.SilkS") (width 0.1524))
  (fp_line (start 7.239 9.017) (end 7.239 8.564597) (layer "F.SilkS") (width 0.1524))
  (fp_line (start 7.239 -1.397) (end 0.381 -1.397) (layer "F.SilkS") (width 0.1524))
  (fp_line (start 0.381 -1.397) (end 0.381 -1.01854) (layer "F.SilkS") (width 0.1524))
  (fp_line (start 0.508 8.89) (end 7.112 8.89) (layer "F.Fab") (width 0.0254))
  (fp_line (start 7.112 8.89) (end 7.112 -1.27) (layer "F.Fab") (width 0.0254))
  (fp_line (start 7.112 -1.27) (end 0.508 -1.27) (layer "F.Fab") (width 0.0254))
  (fp_line (start 0.508 -1.27) (end 0.508 8.89) (layer "F.Fab") (width 0.0254))
  (fp_arc (start 4.1148 -1.27) (mid 3.81 -0.9652) (end 3.5052 -1.27) (layer "F.Fab") (width 0.0254))
  (fp_line (start 0.381 1.01854) (end 0.381 1.595403) (layer "F.SilkS") (width 0.1524))
  (fp_line (start 0.381 3.484597) (end 0.381 4.135403) (layer "F.SilkS") (width 0.1524))
  (fp_line (start 0.381 6.024597) (end 0.381 6.675403) (layer "F.SilkS") (width 0.1524))
  (fp_line (start 0.381 8.564597) (end 0.381 9.017) (layer "F.SilkS") (width 0.1524))
  (fp_line (start 7.239 6.675403) (end 7.239 6.024597) (layer "F.SilkS") (width 0.1524))
  (fp_line (start 7.239 4.135403) (end 7.239 3.484597) (layer "F.SilkS") (width 0.1524))
  (fp_line (start 7.239 1.595403) (end 7.239 0.944597) (layer "F.SilkS") (width 0.1524))
  (fp_line (start 7.239 -0.944597) (end 7.239 -1.397) (layer "F.SilkS") (width 0.1524))
  (pad "1" thru_hole rect (at 0 0) (size 1.3716 1.3716) (drill 0.8636) (layers *.Cu *.Mask))
  (pad "2" thru_hole circle (at 0 2.54) (size 1.3716 1.3716) (drill 0.8636) (layers *.Cu *.Mask))
  (pad "3" thru_hole circle (at 0 5.08) (size 1.3716 1.3716) (drill 0.8636) (layers *.Cu *.Mask))
  (pad "4" thru_hole circle (at 0 7.62) (size 1.3716 1.3716) (drill 0.8636) (layers *.Cu *.Mask))
  (pad "5" thru_hole circle (at 7.62 7.62) (size 1.3716 1.3716) (drill 0.8636) (layers *.Cu *.Mask))
  (pad "6" thru_hole circle (at 7.62 5.08) (size 1.3716 1.3716) (drill 0.8636) (layers *.Cu *.Mask))
  (pad "7" thru_hole circle (at 7.62 2.54) (size 1.3716 1.3716) (drill 0.8636) (layers *.Cu *.Mask))
  (pad "8" thru_hole circle (at 7.62 0) (size 1.3716 1.3716) (drill 0.8636) (layers *.Cu *.Mask))
)
